%YAML 1.1
%TAG !u! tag:unity3d.com,2011:
--- !u!1045 &1
EditorBuildSettings:
  m_ObjectHideFlags: 0
  serializedVersion: 2
  m_Scenes:
  - enabled: 1
    path: Assets/City Adventure/Scenes/A_MainMap.unity
    guid: 312684fab8584e8448ef7fb1bf04a665
  m_configObjects: {}
